<?xml version="1.0" encoding="UTF-8"?>
<CustomTab xmlns="http://soap.sforce.com/2006/04/metadata">
    <description>This tab is used to show Taleo website</description>
    <frameHeight>600</frameHeight>
    <hasSidebar>true</hasSidebar>
    <label>Taleo</label>
    <mobileReady>false</mobileReady>
    <motif>Custom16: Bank</motif>
    <url>https://dtt.taleo.net</url>
    <urlEncodingKey>UTF-8</urlEncodingKey>
</CustomTab>
